HydroSimul - Data Loading
…
2.3 Load tabular data

Similar to plain text files, metadata is often provided before the data body in Excel files. In Excel, each cell can be assigned a specific data type, while in R tables (data.frame or tibble), every column must have the same data type. This necessitates separate handling of metadata and data body to ensure that the correct data types are maintained.

Unlike plain text files where we can only select lines to load, Excel allows us to define coordinates to access a specific celles-box wherever they are located.

2.3.1 First try without any setting

# try without setting
tb_Pegeln <- read_excel(fn_Pegeln)
tb_Pegeln

# A tibble: 277 × 16
   Suchergebnisse Pegel.…¹ ...2  ...3  ...4  ...5  ...6  ...7  ...8  ...9  ...10
   <chr>                   <chr> <chr> <chr> <chr> <chr> <chr> <chr> <chr> <chr>
 1 "Suchkriterien:\n -- \… <NA>  <NA>  <NA>  <NA>  <NA>  <NA>  <NA>  <NA>  <NA> 
 2  <NA>                   <NA>  <NA>  <NA>  <NA>  <NA>  <NA>  <NA>  <NA>  <NA> 
 3  <NA>                   <NA>  <NA>  <NA>  <NA>  <NA>  <NA>  <NA>  <NA>  <NA> 
 4 "Name"                  Pege… Gewä… Betr… Pege… Einz… Q von Q bis NQ    MNQ  
 5 "Ahlen"                 3211… Werse LANU… 73,47 46,62 1975  2013  0     0,07 
 6 "Ahmsen"                4639… Werre LANU… 64,28 593   1963  2022  1,21  2,22 
 7 "Ahrhütte-Neuhof"       2718… Ahr   LANU… 340,… 124   1986  2011  0,22  0,36 
 8 "Albersloh"             3259… Werse LANU… 48,68 321,… 1973  2020  0,12  0,24 
 9 "Altena"                2766… Lenne LANU… 154,… 1.190 1950  2021  1,36  6,48 
10 "Altena_Rahmedestraße"  2766… Rahm… LANU… 157,… 29,6  <NA>  <NA>  <NA>  <NA> 
# ℹ 267 more rows
# ℹ abbreviated name: ¹​`Suchergebnisse Pegel.xlsx 14.09.2023 10:01`
# ℹ 6 more variables: ...11 <chr>, ...12 <chr>, ...13 <chr>, ...14 <chr>,
#   ...15 <chr>, ...16 <chr>
…
